…
- list 1
- list 2
---



### 5. หนังสือที่ไม่มี review เลยคือเรื่องใด
```
books %>% select(Book_title, Reviews) %>% filter(Reviews == 0) %>% print(n = 20)
```

Result:

```
# A tibble: 22 × 2
   Book_title                                Reviews
   <chr>                                       <dbl>
 1 Responsive Web Design Overview For Begin…       0
 2 ZX Spectrum Games Code Club: Twenty fun …       0
 3 Game Programming Golden Rules                   0
 4 Beginners Guide On PHP Programming: Quic…       0
 5 Python Programming Books Set: Python Pro…       0
 6 Your First App: Node.js                         0
 7 Python Programming For Beginners: Quick …       0
 8 Building an FPS Game with Unity                 0
 9 Advanced Game Programming: A Gamedev.Net…       0
10 Basic Proof Theory                              0
11 Cross-Platform Game Programming (Game De…       0
12 Lambda-Calculus, Combinators and Functio…       0
13 The Calculus of Computation: Decision Pr…       0
14 Communication Networks: Fundamental Conc…       0
15 Genetic Programming II: Automatic Discov…       0
16 Game Programming Gems 2                         0
17 Game Programming Gems 5                         0
18 A First Course in Logic: An Introduction…       0
19 Game Programming Gems 6                         0
20 Game Programming Gems 4                         0
# … with 2 more rows
```
…
